^C:\USERS\ADMINISTRADOR\DESKTOP\TRABAJOPRACTICO_SDL\TRABAJOPRACTICOSDL\TRABAJOPRACTICO\X64\RELEASE\MAIN.OBJ
C:\USERS\ADMINISTRADOR\DESKTOP\TRABAJOPRACTICO_SDL\TRABAJOPRACTICOSDL\X64\RELEASE\TRABAJOPRACTICO.EXE
C:\USERS\ADMINISTRADOR\DESKTOP\TRABAJOPRACTICO_SDL\TRABAJOPRACTICOSDL\X64\RELEASE\TRABAJOPRACTICO.IPDB
C:\USERS\ADMINISTRADOR\DESKTOP\TRABAJOPRACTICO_SDL\TRABAJOPRACTICOSDL\X64\RELEASE\TRABAJOPRACTICO.IOBJ
C:\USERS\ADMINISTRADOR\DESKTOP\TRABAJOPRACTICO_SDL\TRABAJOPRACTICOSDL\X64\RELEASE\TRABAJOPRACTICO.PDB
