^C:\USERS\ADMINISTRADOR\DOCUMENTS\VISUAL STUDIO 2015\PROJECTS\TRABAJOPRACTICOSDL\TRABAJOPRACTICO\X64\DEBUG\MAIN.OBJ
C:\USERS\ADMINISTRADOR\DOCUMENTS\VISUAL STUDIO 2015\PROJECTS\TRABAJOPRACTICOSDL\X64\DEBUG\TRABAJOPRACTICO.ILK
C:\USERS\ADMINISTRADOR\DOCUMENTS\VISUAL STUDIO 2015\PROJECTS\TRABAJOPRACTICOSDL\X64\DEBUG\TRABAJOPRACTICO.EXE
C:\USERS\ADMINISTRADOR\DOCUMENTS\VISUAL STUDIO 2015\PROJECTS\TRABAJOPRACTICOSDL\X64\DEBUG\TRABAJOPRACTICO.PDB
