^C:\USERS\ADMINISTRADOR\DESKTOP\ENGINESDL\TRABAJOPRACTICOSDL\OBJ\X64\DEBUG\MAIN.OBJ
C:\USERS\ADMINISTRADOR\DESKTOP\ENGINESDL\TRABAJOPRACTICOSDL\BIN\X64\DEBUG\TRABAJOPRACTICO.ILK
C:\USERS\ADMINISTRADOR\DESKTOP\ENGINESDL\TRABAJOPRACTICOSDL\BIN\X64\DEBUG\TRABAJOPRACTICO.EXE
C:\USERS\ADMINISTRADOR\DESKTOP\ENGINESDL\TRABAJOPRACTICOSDL\BIN\X64\DEBUG\TRABAJOPRACTICO.PDB
