^C:\USERS\ADMINISTRADOR\DESKTOP\TRABAJOPRACTICO_SDL\TRABAJOPRACTICOSDL\TRABAJOPRACTICO\MAIN.CPP
/c /I"C:\USERS\ADMINISTRADOR\DESKTOP\TRABAJOPRACTICO_SDL\TRABAJOPRACTICOSDL\LIBRARIES\VISUAL LEAK DETECTOR\INCLUDE" /I"C:\USERS\ADMINISTRADOR\DESKTOP\TRABAJOPRACTICO_SDL\TRABAJOPRACTICOSDL\LIBRARIES\SDL2-2.0.8\INCLUDE" /ZI /nologo /W3 /WX- /sdl /Od /Oy- /D WIN32 /D _DEBUG /D _CONSOLE /D _UNICODE /D UNICODE /Gm /EHsc /RTC1 /MDd /GS /fp:precise /Zc:wchar_t /Zc:forScope /Zc:inline /Fo"C:\USERS\ADMINISTRADOR\DESKTOP\TRABAJOPRACTICO_SDL\TRABAJOPRACTICOSDL\OBJ\WIN32\DEBUG\\" /Fd"C:\USERS\ADMINISTRADOR\DESKTOP\TRABAJOPRACTICO_SDL\TRABAJOPRACTICOSDL\OBJ\WIN32\DEBUG\VC140.PDB" /Gd /TP /analyze- C:\USERS\ADMINISTRADOR\DESKTOP\TRABAJOPRACTICO_SDL\TRABAJOPRACTICOSDL\TRABAJOPRACTICO\MAIN.CPP
^C:\USERS\ADMINISTRADOR\DESKTOP\ENGINESDL\TRABAJOPRACTICOSDL\TRABAJOPRACTICO\MAIN.CPP
/c /I"C:\USERS\ADMINISTRADOR\DESKTOP\ENGINESDL\TRABAJOPRACTICOSDL\LIBRARIES\VISUAL LEAK DETECTOR\INCLUDE" /I"C:\USERS\ADMINISTRADOR\DESKTOP\ENGINESDL\TRABAJOPRACTICOSDL\LIBRARIES\SDL2-2.0.8\INCLUDE" /ZI /nologo /W3 /WX- /sdl /Od /Oy- /D WIN32 /D _DEBUG /D _CONSOLE /D _UNICODE /D UNICODE /Gm /EHsc /RTC1 /MDd /GS /fp:precise /Zc:wchar_t /Zc:forScope /Zc:inline /Fo"C:\USERS\ADMINISTRADOR\DESKTOP\ENGINESDL\TRABAJOPRACTICOSDL\OBJ\WIN32\DEBUG\\" /Fd"C:\USERS\ADMINISTRADOR\DESKTOP\ENGINESDL\TRABAJOPRACTICOSDL\OBJ\WIN32\DEBUG\VC140.PDB" /Gd /TP /analyze- C:\USERS\ADMINISTRADOR\DESKTOP\ENGINESDL\TRABAJOPRACTICOSDL\TRABAJOPRACTICO\MAIN.CPP
