^C:\USERS\ADMINISTRADOR\DESKTOP\TRABAJOPRACTICO_SDL\TRABAJOPRACTICOSDL\TRABAJOPRACTICO\MAIN.CPP
C:\WINDOWS\GLOBALIZATION\SORTING\SORTDEFAULT.NLS
C:\PROGRAM FILES (X86)\MICROSOFT VISUAL STUDIO 14.0\VC\BIN\3082\CLUI.DLL
C:\WINDOWS\SYSTEM32\TZRES.DLL
C:\USERS\ADMINISTRADOR\DESKTOP\TRABAJOPRACTICO_SDL\TRABAJOPRACTICOSDL\SDL2-2.0.8\INCLUDE\SDL.H
C:\USERS\ADMINISTRADOR\DESKTOP\TRABAJOPRACTICO_SDL\TRABAJOPRACTICOSDL\SDL2-2.0.8\INCLUDE\SDL_MAIN.H
C:\USERS\ADMINISTRADOR\DESKTOP\TRABAJOPRACTICO_SDL\TRABAJOPRACTICOSDL\SDL2-2.0.8\INCLUDE\SDL_STDINC.H
C:\USERS\ADMINISTRADOR\DESKTOP\TRABAJOPRACTICO_SDL\TRABAJOPRACTICOSDL\SDL2-2.0.8\INCLUDE\SDL_CONFIG.H
C:\USERS\ADMINISTRADOR\DESKTOP\TRABAJOPRACTICO_SDL\TRABAJOPRACTICOSDL\SDL2-2.0.8\INCLUDE\SDL_PLATFORM.H
C:\PROGRAM FILES (X86)\WINDOWS KITS\8.1\INCLUDE\SHARED\WINAPIFAMILY.H
C:\USERS\ADMINISTRADOR\DESKTOP\TRABAJOPRACTICO_SDL\TRABAJOPRACTICOSDL\SDL2-2.0.8\INCLUDE\BEGIN_CODE.H
C:\USERS\ADMINISTRADOR\DESKTOP\TRABAJOPRACTICO_SDL\TRABAJOPRACTICOSDL\SDL2-2.0.8\INCLUDE\CLOSE_CODE.H
C:\PROGRAM FILES (X86)\WINDOWS KITS\10\INCLUDE\10.0.10240.0\UCRT\STDDEF.H
C:\PROGRAM FILES (X86)\WINDOWS KITS\10\INCLUDE\10.0.10240.0\UCRT\CORECRT.H
C:\PROGRAM FILES (X86)\MICROSOFT VISUAL STUDIO 14.0\VC\INCLUDE\VCRUNTIME.H
C:\PROGRAM FILES (X86)\MICROSOFT VISUAL STUDIO 14.0\VC\INCLUDE\SAL.H
C:\PROGRAM FILES (X86)\MICROSOFT VISUAL STUDIO 14.0\VC\INCLUDE\CONCURRENCYSAL.H
C:\PROGRAM FILES (X86)\MICROSOFT VISUAL STUDIO 14.0\VC\INCLUDE\VADEFS.H
C:\PROGRAM FILES (X86)\MICROSOFT VISUAL STUDIO 14.0\VC\INCLUDE\STDARG.H
C:\USERS\ADMINISTRADOR\DESKTOP\TRABAJOPRACTICO_SDL\TRABAJOPRACTICOSDL\SDL2-2.0.8\INCLUDE\SDL_ASSERT.H
C:\USERS\ADMINISTRADOR\DESKTOP\TRABAJOPRACTICO_SDL\TRABAJOPRACTICOSDL\SDL2-2.0.8\INCLUDE\SDL_ATOMIC.H
C:\USERS\ADMINISTRADOR\DESKTOP\TRABAJOPRACTICO_SDL\TRABAJOPRACTICOSDL\SDL2-2.0.8\INCLUDE\SDL_AUDIO.H
C:\USERS\ADMINISTRADOR\DESKTOP\TRABAJOPRACTICO_SDL\TRABAJOPRACTICOSDL\SDL2-2.0.8\INCLUDE\SDL_ERROR.H
C:\USERS\ADMINISTRADOR\DESKTOP\TRABAJOPRACTICO_SDL\TRABAJOPRACTICOSDL\SDL2-2.0.8\INCLUDE\SDL_ENDIAN.H
C:\USERS\ADMINISTRADOR\DESKTOP\TRABAJOPRACTICO_SDL\TRABAJOPRACTICOSDL\SDL2-2.0.8\INCLUDE\SDL_MUTEX.H
C:\USERS\ADMINISTRADOR\DESKTOP\TRABAJOPRACTICO_SDL\TRABAJOPRACTICOSDL\SDL2-2.0.8\INCLUDE\SDL_THREAD.H
C:\PROGRAM FILES (X86)\WINDOWS KITS\10\INCLUDE\10.0.10240.0\UCRT\PROCESS.H
C:\PROGRAM FILES (X86)\WINDOWS KITS\10\INCLUDE\10.0.10240.0\UCRT\CORECRT_STARTUP.H
C:\PROGRAM FILES (X86)\WINDOWS KITS\10\INCLUDE\10.0.10240.0\UCRT\MATH.H
C:\PROGRAM FILES (X86)\MICROSOFT VISUAL STUDIO 14.0\VC\INCLUDE\VCRUNTIME_STARTUP.H
C:\PROGRAM FILES (X86)\WINDOWS KITS\10\INCLUDE\10.0.10240.0\UCRT\CORECRT_WPROCESS.H
C:\USERS\ADMINISTRADOR\DESKTOP\TRABAJOPRACTICO_SDL\TRABAJOPRACTICOSDL\SDL2-2.0.8\INCLUDE\SDL_RWOPS.H
C:\USERS\ADMINISTRADOR\DESKTOP\TRABAJOPRACTICO_SDL\TRABAJOPRACTICOSDL\SDL2-2.0.8\INCLUDE\SDL_CLIPBOARD.H
C:\USERS\ADMINISTRADOR\DESKTOP\TRABAJOPRACTICO_SDL\TRABAJOPRACTICOSDL\SDL2-2.0.8\INCLUDE\SDL_CPUINFO.H
C:\PROGRAM FILES (X86)\MICROSOFT VISUAL STUDIO 14.0\VC\INCLUDE\INTRIN.H
C:\PROGRAM FILES (X86)\MICROSOFT VISUAL STUDIO 14.0\VC\INCLUDE\SETJMP.H
C:\PROGRAM FILES (X86)\MICROSOFT VISUAL STUDIO 14.0\VC\INCLUDE\IMMINTRIN.H
C:\PROGRAM FILES (X86)\MICROSOFT VISUAL STUDIO 14.0\VC\INCLUDE\WMMINTRIN.H
C:\PROGRAM FILES (X86)\MICROSOFT VISUAL STUDIO 14.0\VC\INCLUDE\NMMINTRIN.H
C:\PROGRAM FILES (X86)\MICROSOFT VISUAL STUDIO 14.0\VC\INCLUDE\SMMINTRIN.H
C:\PROGRAM FILES (X86)\MICROSOFT VISUAL STUDIO 14.0\VC\INCLUDE\TMMINTRIN.H
C:\PROGRAM FILES (X86)\MICROSOFT VISUAL STUDIO 14.0\VC\INCLUDE\PMMINTRIN.H
C:\PROGRAM FILES (X86)\MICROSOFT VISUAL STUDIO 14.0\VC\INCLUDE\EMMINTRIN.H
C:\PROGRAM FILES (X86)\MICROSOFT VISUAL STUDIO 14.0\VC\INCLUDE\XMMINTRIN.H
C:\PROGRAM FILES (X86)\MICROSOFT VISUAL STUDIO 14.0\VC\INCLUDE\MMINTRIN.H
C:\PROGRAM FILES (X86)\WINDOWS KITS\10\INCLUDE\10.0.10240.0\UCRT\MALLOC.H
C:\PROGRAM FILES (X86)\WINDOWS KITS\10\INCLUDE\10.0.10240.0\UCRT\CORECRT_MALLOC.H
C:\PROGRAM FILES (X86)\MICROSOFT VISUAL STUDIO 14.0\VC\INCLUDE\AMMINTRIN.H
C:\PROGRAM FILES (X86)\MICROSOFT VISUAL STUDIO 14.0\VC\INCLUDE\MM3DNOW.H
C:\USERS\ADMINISTRADOR\DESKTOP\TRABAJOPRACTICO_SDL\TRABAJOPRACTICOSDL\SDL2-2.0.8\INCLUDE\SDL_EVENTS.H
C:\USERS\ADMINISTRADOR\DESKTOP\TRABAJOPRACTICO_SDL\TRABAJOPRACTICOSDL\SDL2-2.0.8\INCLUDE\SDL_VIDEO.H
C:\USERS\ADMINISTRADOR\DESKTOP\TRABAJOPRACTICO_SDL\TRABAJOPRACTICOSDL\SDL2-2.0.8\INCLUDE\SDL_PIXELS.H
C:\USERS\ADMINISTRADOR\DESKTOP\TRABAJOPRACTICO_SDL\TRABAJOPRACTICOSDL\SDL2-2.0.8\INCLUDE\SDL_RECT.H
C:\USERS\ADMINISTRADOR\DESKTOP\TRABAJOPRACTICO_SDL\TRABAJOPRACTICOSDL\SDL2-2.0.8\INCLUDE\SDL_SURFACE.H
C:\USERS\ADMINISTRADOR\DESKTOP\TRABAJOPRACTICO_SDL\TRABAJOPRACTICOSDL\SDL2-2.0.8\INCLUDE\SDL_BLENDMODE.H
C:\USERS\ADMINISTRADOR\DESKTOP\TRABAJOPRACTICO_SDL\TRABAJOPRACTICOSDL\SDL2-2.0.8\INCLUDE\SDL_KEYBOARD.H
C:\USERS\ADMINISTRADOR\DESKTOP\TRABAJOPRACTICO_SDL\TRABAJOPRACTICOSDL\SDL2-2.0.8\INCLUDE\SDL_KEYCODE.H
C:\USERS\ADMINISTRADOR\DESKTOP\TRABAJOPRACTICO_SDL\TRABAJOPRACTICOSDL\SDL2-2.0.8\INCLUDE\SDL_SCANCODE.H
C:\USERS\ADMINISTRADOR\DESKTOP\TRABAJOPRACTICO_SDL\TRABAJOPRACTICOSDL\SDL2-2.0.8\INCLUDE\SDL_MOUSE.H
C:\USERS\ADMINISTRADOR\DESKTOP\TRABAJOPRACTICO_SDL\TRABAJOPRACTICOSDL\SDL2-2.0.8\INCLUDE\SDL_JOYSTICK.H
C:\USERS\ADMINISTRADOR\DESKTOP\TRABAJOPRACTICO_SDL\TRABAJOPRACTICOSDL\SDL2-2.0.8\INCLUDE\SDL_GAMECONTROLLER.H
C:\USERS\ADMINISTRADOR\DESKTOP\TRABAJOPRACTICO_SDL\TRABAJOPRACTICOSDL\SDL2-2.0.8\INCLUDE\SDL_QUIT.H
C:\USERS\ADMINISTRADOR\DESKTOP\TRABAJOPRACTICO_SDL\TRABAJOPRACTICOSDL\SDL2-2.0.8\INCLUDE\SDL_GESTURE.H
C:\USERS\ADMINISTRADOR\DESKTOP\TRABAJOPRACTICO_SDL\TRABAJOPRACTICOSDL\SDL2-2.0.8\INCLUDE\SDL_TOUCH.H
C:\USERS\ADMINISTRADOR\DESKTOP\TRABAJOPRACTICO_SDL\TRABAJOPRACTICOSDL\SDL2-2.0.8\INCLUDE\SDL_FILESYSTEM.H
C:\USERS\ADMINISTRADOR\DESKTOP\TRABAJOPRACTICO_SDL\TRABAJOPRACTICOSDL\SDL2-2.0.8\INCLUDE\SDL_HAPTIC.H
C:\USERS\ADMINISTRADOR\DESKTOP\TRABAJOPRACTICO_SDL\TRABAJOPRACTICOSDL\SDL2-2.0.8\INCLUDE\SDL_HINTS.H
C:\USERS\ADMINISTRADOR\DESKTOP\TRABAJOPRACTICO_SDL\TRABAJOPRACTICOSDL\SDL2-2.0.8\INCLUDE\SDL_LOADSO.H
C:\USERS\ADMINISTRADOR\DESKTOP\TRABAJOPRACTICO_SDL\TRABAJOPRACTICOSDL\SDL2-2.0.8\INCLUDE\SDL_LOG.H
C:\USERS\ADMINISTRADOR\DESKTOP\TRABAJOPRACTICO_SDL\TRABAJOPRACTICOSDL\SDL2-2.0.8\INCLUDE\SDL_MESSAGEBOX.H
C:\USERS\ADMINISTRADOR\DESKTOP\TRABAJOPRACTICO_SDL\TRABAJOPRACTICOSDL\SDL2-2.0.8\INCLUDE\SDL_POWER.H
C:\USERS\ADMINISTRADOR\DESKTOP\TRABAJOPRACTICO_SDL\TRABAJOPRACTICOSDL\SDL2-2.0.8\INCLUDE\SDL_RENDER.H
C:\USERS\ADMINISTRADOR\DESKTOP\TRABAJOPRACTICO_SDL\TRABAJOPRACTICOSDL\SDL2-2.0.8\INCLUDE\SDL_SHAPE.H
C:\USERS\ADMINISTRADOR\DESKTOP\TRABAJOPRACTICO_SDL\TRABAJOPRACTICOSDL\SDL2-2.0.8\INCLUDE\SDL_SYSTEM.H
C:\USERS\ADMINISTRADOR\DESKTOP\TRABAJOPRACTICO_SDL\TRABAJOPRACTICOSDL\SDL2-2.0.8\INCLUDE\SDL_TIMER.H
C:\USERS\ADMINISTRADOR\DESKTOP\TRABAJOPRACTICO_SDL\TRABAJOPRACTICOSDL\SDL2-2.0.8\INCLUDE\SDL_VERSION.H
C:\PROGRAM FILES (X86)\WINDOWS KITS\10\INCLUDE\10.0.10240.0\UCRT\STDIO.H
C:\PROGRAM FILES (X86)\WINDOWS KITS\10\INCLUDE\10.0.10240.0\UCRT\CORECRT_WSTDIO.H
C:\PROGRAM FILES (X86)\WINDOWS KITS\10\INCLUDE\10.0.10240.0\UCRT\CORECRT_STDIO_CONFIG.H
