^C:\USERS\ADMINISTRADOR\DESKTOP\TRABAJOPRACTICO_SDL\TRABAJOPRACTICOSDL\OBJ\WIN32\RELEASE\MAIN.OBJ
C:\USERS\ADMINISTRADOR\DESKTOP\TRABAJOPRACTICO_SDL\TRABAJOPRACTICOSDL\BIN\WIN32\RELEASE\TRABAJOPRACTICO.EXE
C:\USERS\ADMINISTRADOR\DESKTOP\TRABAJOPRACTICO_SDL\TRABAJOPRACTICOSDL\BIN\WIN32\RELEASE\TRABAJOPRACTICO.IPDB
C:\USERS\ADMINISTRADOR\DESKTOP\TRABAJOPRACTICO_SDL\TRABAJOPRACTICOSDL\BIN\WIN32\RELEASE\TRABAJOPRACTICO.IOBJ
C:\USERS\ADMINISTRADOR\DESKTOP\TRABAJOPRACTICO_SDL\TRABAJOPRACTICOSDL\BIN\WIN32\RELEASE\TRABAJOPRACTICO.PDB
